Analysis of moss change
…
## # A tibble: 124 x 2
##    `n_hok_1980-1999`     n
##                <int> <int>
##  1                 0   285
##  2                 5    41
##  3                 6    26
##  4                 7    23
##  5                 8    17
##  6                 9    28
##  7                10    28
##  8                11    20
##  9                12    19
## 10                13     6
## # ... with 114 more rows

## # A tibble: 145 x 2
##    `n_hok_2000-2019`     n
##                <int> <int>
##  1                 0    24
##  2                 1   103
##  3                 2    77
##  4                 3    46
##  5                 4    46
##  6                 5    23
##  7                 6    33
##  8                 7    16
##  9                 8    31
## 10                 9    30
## # ... with 135 more rows
…
